module gitlab.com/gogolok/finance-lsquote

go 1.20

require github.com/spf13/cobra v1.2.1

require (
	github.com/inconshreveable/mousetrap v1.0.0 // indirect
	github.com/spf13/pflag v1.0.5 // indirect
)
